{
  "title": "Course update results",
  "searchExpression": "indexof(student/studentIdentifier, '${text}') ge 0 or indexof(student/person/familyName, '${text}') ge 0 or indexof(student/studyProgram/abbreviation, '${text}') ge 0 )",
  "columns": [
    {
      "name": "student/id",
      "property": "id",
      "formatter": "ActionLinkFormatter",
      "actions": [
        {
          "title": "Courses.Preview",
          "href": "#/students/${id}/dashboard/overview"
        }
      ]
    },

    {
      "name": "student/studentIdentifier",
      "property": "studentIdentifier",
      "title": "Students.studentIdentifier"
    },
    {
      "name": "student/person/familyName",
      "property": "familyName",
      "title": "Students.fullName",
      "formatter": "TemplateFormatter",
      "formatString": "${familyName} ${givenName}"
    },
    {
      "name": "student/person/givenName",
      "property": "givenName",
      "title": "Students.GivenName",
      "hidden": true
    },
    {
      "name": "student/studyProgram/abbreviation",
      "property": "studyProgram",
      "title": "Students.studyProgram"
    },
    {
      "name": "description",
      "property": "description",
      "title": "Courses.Description"
    },
    {
      "name": "dateCreated",
      "property": "dateCreated",
      "title": "Courses.ModifiedDate",
      "formatter": "DateTimeFormatter",
      "formatString": "short"
    },
    {
      "name": "createdBy/name",
      "property": "createdByName",
      "title": "Courses.ModifiedBy"
    },
    {
      "name":"updated",
      "property": "updated",
      "title":"Courses.Updated",
      "formatters": [
        {
          "formatter": "TrueFalseFormatter"
        },
        {
          "formatter": "NgClassFormatter",
          "formatOptions": {
            "ngClass": {
              "text-success": "${updated}",
              "d-none": "${updated==null}",
              "text-danger": "${!updated}"
            }
          }
        }
      ]
    }
  ],
  "defaults": {
    "filter": "(student/department eq ${currentDepartment})",
    "orderBy": "action/dateCreated desc"
  },
  "criteria": [
    {
      "name": "studyProgram",
      "filter": "(indexof(student/studyProgram/name, '${value}') ge 0 )",
      "type": "text"
    },
    {
      "name": "familyName",
      "filter": "(indexof(student/person/familyName, '${value}') ge 0)",
      "type": "text"
    },
    {
      "name": "studentStatus",
      "filter": "(student/studentStatus/alternateName eq '${value}')",
      "type": "text"
    },
    {
      "name": "inscriptionYear",
      "filter": "(student/inscriptionYear/name eq '${value}')",
      "type": "text"
    },
    {
      "name": "studentIdentifier",
      "filter": "(student/studentIdentifier eq '${value}')",
      "type": "text"
    },
    {
      "name": "updated",
      "filter": "${value >= 1 ? '(updated eq 1)' : '(updated eq 0)'}",
      "type": "text"
    },
    {
      "name": "studentName",
      "filter": "(indexof(student/person/familyName, '${value}') ge 0 or indexof(student/person/givenName, '${value}') ge 0)",
      "type": "text"
    },
    {
      "name": "actionId",
      "filter": "(action/id eq '${value}')",
      "type": "text"
    },
    {
      "name": "description",
      "filter": "(indexof(description, '${value}') ge 0)",
      "type": "text"
    }
  ]
}
