{
  "title": "Companies",
  "model": "Companies",
  "searchExpression": "indexof(name, '${text}') ge 0 or indexof(email, '${text}') ge 0 or indexof(phone, '${text}') ge 0 or indexof(address, '${text}') ge 0",
  "columns": [
    {
      "name": "name",
      "title": "Companies.Name"
    },
    {
      "name": "profession",
      "property": "profession",
      "title": "Companies.Profession"
    },
    {
      "name": "vatNumber",
      "property": "vatNumber",
      "title": "Companies.VAT Number"
    },
    {
      "name": "vatOffice",
      "property": "vatOffice",
      "title": "Companies.VAT Office"
    },
    {
      "name": "address",
      "property": "address",
      "title": "Companies.Address"
    },
    {
      "name": "phone",
      "property": "phone",
      "title": "Companies.Phone"
    },
    {
      "name": "fax",
      "property": "fax",
      "title": "Companies.FAX"
    },
    {
      "name": "email",
      "property": "email",
      "title": "Companies.Email"
    },
    {
      "name": "id",
      "formatter": "ButtonFormatter",
      "formatString": "(modal:edit)",
      "className": "text-center",
      "formatOptions": {
        "buttonContent": "<i class=\"far fa-edit text-indigo\"></i>",
        "buttonClass": "btn btn-default"
      }
    }
  ],
  "defaults": {},
  "criteria": [
    {
      "name": "name",
      "filter": "(indexof(name, '${value}') ge 0)",
      "type": "text"
    },
    {
      "name": "email",
      "filter": "(indexof(email, '${value}') ge 0)",
      "type": "text"
    },
    {
      "name": "address",
      "filter": "(indexof(address, '${value}') ge 0)",
      "type": "text"
    },
    {
      "name": "phone",
      "filter": "(indexof(phone, '${value}') ge 0)",
      "type": "text"
    },
    {
      "name": "vatNumber",
      "filter": "(indexof(vatNumber, '${value}') ge 0)",
      "type": "text"
    },
    {
      "name": "vatOffice",
      "filter": "(indexof(vatOffice, '${value}') ge 0)",
      "type": "text"
    },
    {
      "name": "fax",
      "filter": "(indexof(fax, '${value}') ge 0)",
      "type": "text"
    },
    {
      "name": "profession",
      "filter": "(indexof(profession, '${value}') ge 0)",
      "type": "text"
    }
  ],
  "searches": [],
  "paths": []
}
