{
  "title": "Requests",
  "model": "StudentRequestConfigurations",
  "columns": [
    {
      "name":"name",
      "property": "name"
    },
    {
      "name":"inLanguage",
      "property": "inLanguage",
      "title":"Requests.InLanguage",
      "formatter": "LanguageFormatter"
    },
    {
      "name":"category/name",
      "property": "category",
      "title":"Requests.RequestTypes.Category"
   },
    {
      "name":"dateModified",
      "property": "dateModified",
      "title":"Requests.Preview.DateModified",
      "formatter": "DateTimeFormatter",
      "formatString": "medium"
    },
    {
      "name": "id",
      "formatter": "ButtonFormatter",
      "formatString":"(modal:edit)",
      "className": "text-center",
      "formatOptions": {
        "buttonContent": "<i class=\"far fa-edit text-indigo\"></i>",
        "buttonClass": "btn btn-default"
      }
    },
    {
      "name": "id",
      "property": "studentDocumentRulesID",
      "formatter": "ButtonFormatter",
      "formatString": "(modal:rules)",
      "className": "text-center ",
      "formatOptions": {
        "buttonContent": "<i class=\"fas fa-blender text-indigo\"></i>",
        "buttonClass": "btn btn-default",
        "buttonTitle": "Rules.RuleTypes.SpecialtyRules",
        "commands": [
          {
            "outlets": {
              "modal": [
                "${id}",
                "rules"
              ]
            }
          }
        ],
        "navigationExtras": {
          "replaceUrl": false,
          "skipLocationChange": true
        }
      }
    }
  ]
}
