{
    "components": [
        {
            "label": "Columns",
            "columns": [
                {
                    "components": [
                        {
                            "label": "Degree template",
                            "widget": "choicesjs",
                            "dataSrc": "url",
                            "defaultValue": "",
                            "labelPosition": "top",
                            "customClass": "formio-component-select-wrap",
                            "data": {
                              "values": [],
                              "url": "DegreeTemplates?$orderby=title&$filter=departmentCode eq {{data.department}}",
                              "headers": []
                            },
                            "validate": {
                              "required": true
                            },
                            "valueProperty": "id",
                            "lazyLoad": false,
                            "dataType": "string",
                            "template": "<span>[{{ item.titleID }}]&nbsp;{{ item.title }}</span><br/><span>{{ item.publisherName }}<br/><span>{{ item.instituteName }}</span>",
                            "selectThreshold": 0.3,
                            "searchEnabled": true,
                            "searchFields": [
                                "title",
                                "publisherName",
                                "instituteName"
                            ],
                            "key": "degreeTemplate",
                            "type": "select",
                            "selectValues": "value",
                            "input": true
                          }
                    ],
                    "width": 8,
                    "offset": 0,
                    "push": 0,
                    "pull": 0,
                    "size": "md"
                },
                {
                    "components": [],
                    "width": 12,
                    "offset": 0,
                    "push": 0,
                    "pull": 0,
                    "size": "md"
                }
            ],
            "key": "columns",
            "type": "columns",
            "input": false,
            "tableView": false
        }
    ]
}
