{
    "title": "CourseClasses",
    "model": "CourseClasses",
    "searchExpression":"(indexof(title, '${text}') ge 0 or indexof(course/displayCode, '${text}') ge 0 or indexof(course/department/abbreviation, '${text}') ge 0 or indexof(course/department/name, '${text}') ge 0 or indexof(year/alternateName, '${text}') ge 0 )",
    "columns": [
        {
          "name":"id",
          "property":"id",
          "hidden": true
        },
        {
          "name":"course/displayCode",
          "property":"displayCode",
          "title":"Classes.DisplayCode"
        },
        {
          "name":"title",
          "property": "title",
          "title":"Classes.ClassTitle"
        },
        {
          "name":"year/alternateName",
          "property": "academicYear",
          "title":"Classes.AcademicYear"
        },
        {
          "name":"period/name",
          "property": "period",
          "title":"Classes.Period"
        }
    ],
    "defaults":{
      "filter": "(department eq ${currentDepartment})",
      "orderBy": "year desc,period desc,title asc"
    },
    "criteria": [
      {
        "name": "title",
        "filter": "(indexof(title, '${value}') ge 0)",
        "type": "text"
      },
      {
        "name": "displayCode",
        "filter": "(course/displayCode eq '${value}')",
        "type": "text"
      }
      ,
      {
        "name": "numberOfStudents",
        "filter": "(numberOfStudents eq '${value}')",
        "type": "text"
      },
      {
        "name": "yearId",
        "filter": "(year/id eq '${value}')",
        "type": "text"
      },
      {
        "name": "period",
        "filter": "(period/alternateName eq '${value}')",
        "type": "text"
      },
      {
        "name": "currentYear",
        "filter": "(year eq '${currentYear}')",
        "type": "text"
      },
      {
        "name": "currentPeriod",
        "filter": "(period eq '${currentPeriod}' and year eq '${currentYear}')",
        "type": "text"
      }
    ],
    "searches" : [
      {
        "name": "AdvancedSearch.PreDefinedLists.currentYear",
        "filter": {
          "currentYear": true
        }
      },
      {
        "name": "AdvancedSearch.PreDefinedLists.currentPeriod",
        "filter": {
          "currentPeriod": true
        }
      }
    ]
}
