{
  "title": "Settings.Lists.DepartmentReportVariableValue.Description",
  "model": "DepartmentReportVariableValues",
  "settings": {
    "i18n": {
      "el": {
        "Edit item": "Επεξεργασία στοιχείου",
        "Variable type": "Τύπος μεταβλητής"
      }
    }
  },
  "components": [
    {
      "label": "HTML",
      "tag": "h5",
      "className": "font-weight-normal",
      "content": "{{instance.t('Edit item')}}",
      "refreshOnChange": false,
      "tableView": false,
      "key": "subtitle",
      "type": "htmlelement",
      "input": false
    },
    {
      "label": "Columns",
      "columns": [
        {
          "components": [
            {
              "label": "Variable type",
              "labelPosition": "top",
              "disabled": false,
              "widget": "choicesjs",
              "dataSrc": "url",
              "data": {
                "url": "ReportVariableTypes/?$orderby=name",
                "headers": []
              },
              "searchFields": ["id"],
              "template": "<span class='d-block pr-5 text-truncate'>{{ item.name }}</span>",
              "selectThreshold": 0.3,
              "selectValues": "value",
              "key": "reportVariable",
              "valueProperty": "id",
              "type": "select",
              "input": true,
              "validate": {
                "required": true
              }
            }
          ],
          "width": 4,
          "offset": 0,
          "push": 0,
          "pull": 0
        },
        {
          "components": [
            {
              "label": "Language",
              "labelPosition": "top",
              "disabled": false,
              "widget": "choicesjs",
              "dataSrc": "url",
              "data": {
                "url": "Workspaces/Locales",
                "headers": []
              },
              "searchFields": ["id"],
              "template": "<span class='d-block pr-5 text-truncate'>{{ item.name }}</span>",
              "selectThreshold": 0.3,
              "selectValues": "value",
              "key": "inLanguage",
              "valueProperty": "id",
              "type": "select",
              "input": true
            }
          ],
          "width": 4,
          "offset": 0,
          "push": 0,
          "pull": 0
        },
        {
          "components": [
            {
              "label": "Text",
              "autoExpand": false,
              "tableView": true,
              "key": "valueText",
              "type": "textarea",
              "input": true,
              "hideOnChildrenHidden": false
            }
          ],
          "width": 12,
          "offset": 0,
          "push": 0,
          "pull": 0,
          "size": "md"
        },
        {
          "components": [
            {
              "label": "Rich text",
              "editor": "quill",
              "tableView": true,
              "key": "valueNote",
              "type": "textarea",
              "input": true,
              "isUploadEnabled": false,
              "hideOnChildrenHidden": false
            }
          ],
          "width": 12,
          "offset": 0,
          "push": 0,
          "pull": 0,
          "size": "md"
        },
        {
          "components": [
            {
              "label": "Number",
              "mask": false,
              "spellcheck": true,
              "tableView": false,
              "delimiter": false,
              "requireDecimal": false,
              "inputFormat": "plain",
              "key": "valueNumber",
              "type": "number",
              "input": true,
              "hideOnChildrenHidden": false
            },
            {
              "label": "Boolean",
              "tableView": false,
              "key": "valueBoolean",
              "type": "checkbox",
              "input": true,
              "defaultValue": false,
              "hideOnChildrenHidden": false
            }
          ],
          "width": 6,
          "offset": 0,
          "push": 0,
          "pull": 0,
          "size": "md"
        }
      ],
      "key": "columns",
      "type": "columns",
      "input": false,
      "tableView": false
    },
    {
      "type": "button",
      "label": "Submit",
      "key": "submit",
      "disableOnInvalid": true,
      "input": true,
      "tableView": false
    }
  ]
}
