{
    "model": "AttachmentTypes",
    "settings": {
      "i18n": {
        "el": {
          "Set the name of this item":"Ορίστε την ονομασία του στοιχείου",
          "Set an alternate name for this item. This name will be used to identify items":"Ορίστε μία εναλλακτική ονομασία για αυτό το στοιχείο. Αυτό το όνομα θα χρησιμοποιηθεί για την ταυτοποίηση του στοιχείου",
          "This field must contain only latin characters or numbers e.g. active, closed etc. A value is required.": "Αυτό το πεδίο πρέπει να περιέχει μόνον λατινικούς χαρακτήρες ή αριθμούς πχ. active, closed κτλ. Το πεδίο είναι υποχρεωτικό.",
          "Write a short description for this item": "Γράψτε μία σύντομη περιγραφή για αυτό το στοιχείο",
          "Set an identifier that is going to be used either by an external system or by internal processes":"Ορίστε ένα κωδικό ταυτοποίησης ο οποίος πρόκειται να χρησιμοποιηθεί είτε από εξωτερικά συστήματα είτε από εσωτερικές διαδικασίες",
          "This type of attachment is a physical document": "Αυτός ο τύπος της επισύναψης είναι ένα φυσικό έγγραφο",
          "Enable this feature which indicates whether this attachment type is a physical document or not. A physical document is an item which cannot be digitalized at any manner.": "Ενεργοποιήστε αυτή την επιλογή όταν αυτός ο τύπος της επισύναψης είναι ένα φυσικό έγγραφο. Ένα φυσικό έγγραφο δεν μπορεί να ψηφιοποιηθεί με κανέναν τρόπο."
        }
      }
    },
    "components": [
      {
        "type": "fieldset",
        "components": [
          {
            "label": "HTML",
            "tag": "h5",
            "className": "font-weight-normal",
            "content": "{{instance.i18next.translator.translate('Edit item')}}",
            "refreshOnChange": false,
            "tableView": false,
            "key": "subtitle",
            "type": "htmlelement",
            "input": false
          },
          {
            "columns": [
              {
                "components": [
                  {
                    "label": "Name",
                    "labelPosition": "top",
                    "widget": {
                      "type": "input"
                    },
                    "validate": {
                      "required": true
                    },
                    "key": "name",
                    "type": "textfield",
                    "input": true,
                    "disabled": false,
                    "description": "Set the name of this item"
                  }
                ],
                "width": 6
              },
              {
                "components": [
                  {
                    "label": "AlternateName",
                    "labelPosition": "top",
                    "widget": {
                      "type": "input"
                    },
                    "validate": {
                      "required": true,
                      "pattern": "^[a-zA-Z0-9_+-]+$",
                      "customMessage": "This field must contain only latin characters or numbers. A value is required."
                    },
                    "key": "alternateName",
                    "type": "textfield",
                    "input": true,
                    "description": "Set an alternate name for this item. This name will be used to identify items"
                  }
                ],
                "width": 6
              },
              {
                "components": [
                  {
                    "label": "Description",
                    "labelPosition": "top",
                    "widget": {
                      "type": "input"
                    },
                    "validate": {
                      "required": false
                    },
                    "key": "description",
                    "type": "textarea",
                    "input": true,
                    "description": "Write a short description for this item"
                  }
                ],
                "width": 12
              },
              {
                "components": [
                  {
                    "label": "This type of attachment is a physical document",
                    "defaultValue": false,
                    "validate": {
                      "unique": false,
                      "multiple": false
                    },
                    "key": "physical",
                    "type": "checkbox",
                    "input": true,
                    "description": "Enable this feature which indicates whether this attachment type is a physical document or not. A physical document is an item which cannot be digitalized at any manner.",
                    "disabled": false
                  }
                ],
                "width": 12
              }
            ],
            "customClass": "text-dark",
            "hideLabel": true,
            "type": "columns",
            "input": false
          }
        ]
      },
      {
        "type": "button",
        "label": "Submit",
        "key": "submit",
        "disableOnInvalid": true,
        "input": true
      }
    ]
  }
