{
  "title": "StudyPrograms.Courses",
  "model": "SpecializationCourses",
  "searchExpression":"indexof(studyProgramCourse/course/name, '${text}') ge 0 or indexof(studyProgramCourse/course/displayCode, '${text}') ge 0 or indexof(studyProgramCourse/course/courseArea/name, '${text}') ge 0 or indexof(studyProgramCourse/course/courseCategory/name, '${text}') ge 0",
  "selectable": true,
  "multipleSelect": true,
  "columns": [
    {
      "name":"studyProgramCourse/course/displayCode",
      "property": "displayCode",
      "title":"Courses.DisplayCode"
    },
    {
      "name": "studyProgramCourse/course/courseStructureType",
      "property": "courseStructureType",
      "title": "Courses.CourseStructureType",
      "hidden": true
    },
    {
      "name":"studyProgramCourse/course/name",
      "property": "name",
      "title":"Courses.name"
    },
    {
      "name":"studyProgramCourse/studyProgram",
      "property": "programID",
      "title":"StudyPrograms.ID",
      "hidden": true
    },
    {
      "name":"specialization/name",
      "property": "specialty",
      "title":"Courses.Specialty"
    },
    {
      "name":"specialization/id",
      "property": "specialtyId",
      "title":"Courses.Specialty",
      "hidden": true
    },
    {
      "name":"studyProgramCourse/course/id",
      "property": "courseId",
      "hidden": true
    },

    {
      "name":"studyProgramCourse/course/courseArea/name",
      "property": "courseArea",
      "title":"Courses.courseArea"
    },
    {
      "name":"studyProgramCourse/course/courseSector/name",
      "property": "courseSector",
      "title":"Courses.courseSector",
      "hidden": true
    },
    {
      "name":"studyProgramCourse/course/courseCategory/name",
      "property": "courseCategory",
      "title":"Courses.courseCategory",
      "hidden": true
    },
    {
      "name":"sortIndex",
      "property": "sortIndex",
      "title":"StudyPrograms.SortIndex"
    },
    {
      "name":"semester/id",
      "property": "semester",
      "title":"Courses.semester",
      "hidden": true
    },
    {
      "name":"semester/name",
      "property": "courseSemester",
      "title":"Courses.semester"
    },
    {
      "name":"courseType/id",
      "property": "courseType",
      "title":"Courses.CourseType.Label",
      "hidden": true
    },
    {
      "name":"courseType/abbreviation",
      "property": "courseTypeName",
      "title":"Courses.CourseType.Label"
    },
    {
      "name":"units",
      "property": "units",
      "title":"Courses.units"
    },
    {
      "name":"ects",
      "property": "ects",
      "title":"Courses.ects"
    },
    {
      "name":"coefficient",
      "property": "coefficient",
      "title":"Courses.Coefficient"
    }
  ],
  "defaults":{
    "orderBy": "semester asc,studyProgramCourse/course/name asc",
    "filter": "studyProgramCourse/studyProgram eq '20000061')"
  },
  "criteria": [
    {
      "name": "name",
      "filter": "(indexof(studyProgramCourse/course/name, '${value}') ge 0)",
      "type": "text"
    },
    {
      "name": "displayCode",
      "filter": "(indexof(studyProgramCourse/course/displayCode, '${value}') ge 0)",
      "type": "text"
    },
    {
      "name": "courseStructureType",
      "filter": "(studyProgramCourse/course/courseStructureType eq '${value}')",
      "type": "text"
    },
    {
      "name": "courseSector",
      "filter": "(studyProgramCourse/course/courseSector/id eq '${value}')",
      "type": "text"
    },
    {
      "name": "courseCategory",
      "filter": "(studyProgramCourse/course/courseCategory/id eq '${value}')",
      "type": "text"
    },
    {
      "name": "isEnabled",
      "filter": "(studyProgramCourse/course/isEnabled eq '${value}')",
      "type": "text"
    },
    {
      "name": "specialty",
      "filter": "(studyProgramSpecialty/name eq '${value}')",
      "type": "text"
    },
    {
      "name": "semester",
      "filter": "(semester/name eq '${value}')",
      "type": "text"
    },
    {
      "name": "courseType/name",
      "filter": "(courseType/name eq '${value}')",
      "type": "text"
    }
  ],
  "paths" : [
    {
      "name": "Courses.All",
      "alternateName": "list/index",
      "show": true,
      "filter": {
        "status": "0"
      }
    },
    {
      "name": "Courses.IsEnabledPlural.1",
      "alternateName": "list/activeCourse",
      "show": true,
      "filter": {
        "status": "1"
      }
    },
    {
      "name": "Courses.IsEnabledPlural.0",
      "alternateName": "list/deactiveCourse",
      "show": true,
      "filter": {
        "status": "0"
      }
    }
  ]
}
