{
    "components": [
        {
            "label": "Subject",
            "tableView": true,
            "key": "name",
            "autocomplete": "off",
            "type": "textfield",
            "labelMargin": 2,
            "input": true
        },
        {
            "label": "Write a short message",
            "autoExpand": false,
            "hideLabel": false,
            "showWordCount": true,
            "tableView": true,
            "inputFormat": "plain",
            "key": "body",
            "type": "textarea",
            "input": true,
            "validation": {
              "required": true
            }
        },
        {
            "label": "Upload",
            "tableView": false,
            "storage": "base64",
            "webcam": false,
            "hideLabel": true,
            "fileTypes": [
                {
                    "label": "",
                    "value": ""
                }
            ],
            "key": "attachments",
            "type": "file",
            "input": true
        },
        {
            "label": "Send",
            "customClass": "d-inline-block text-lowercase",
            "showValidations": false,
            "tableView": false,
            "action": "event",
            "key": "sendMessage",
            "type": "button",
            "input": true,
            "hideOnChildrenHidden": false
        },
        {
            "label": "Cancel",
            "action": "event",
            "customClass": "d-inline-block text-lowercase",
            "showValidations": false,
            "theme": "secondary",
            "tableView": false,
            "key": "cancelMessage",
            "type": "button",
            "input": true,
            "hideOnChildrenHidden": false
        }
    ]
}
