{
  "title": "Department Users",
  "model": "Users",
  "selectable": true,
  "multipleSelect": true,
  "columns": [
    {
      "name": "name",
      "property": "name",
      "title": "Departments.Name"
    },
    {
      "name": "alternateName",
      "property": "alternateName",
      "title": "Departments.AlternateName"
    },
    {
      "name": "enabled",
      "property": "enabled",
      "title": "Departments.StatusTitle",
      "formatter": "TranslationFormatter",
      "formatString": "Departments.UserStatusTypes.${value}"
    },
    {
      "name": "id",
      "property": "id",
      "formatter": "ButtonFormatter",
      "formatString": "#/users/${id}/",
      "className": "text-center",
      "formatOptions": {
        "buttonContent": "<i class=\"far fa-eye text-indigo\"></i>",
        "buttonClass": "btn btn-default"
      }
    }
  ],
  "defaults": {
  }
}
