{
  "settings": {
    "i18n": {
      "el": {
          "Attachment Type": "Τύπος Επισύναψης",
          "Select the attachment type": "Επιλέξτε τον τύπο της επισύναψης"
      }
    }
  },
  "components": [
    {
      "columns": [
        {
          "components": [
              {
                  "label": "Attachment Type",
                  "dataSrc": "url",
                  "data": {
                    "url": "AttachmentTypes?$top=-1&$orderby=name",
                      "headers": []  
                  },
                  "validate": {
                      "required": true
                  },
                  "template": "<span class='d-block pr-5'>{{ item.name }}</span>",
                  "selectValues": "value",
                  "refreshOnChange": false,
                  "type": "select",
                  "input": true,
                  "key": "attachmentTypes",
                  "description": "Select the attachment type"
              }
          ],
          "width": 12
        }
      ],
      "customClass": "formio-component-select-wrap",
      "hideLabel": true,
      "type": "columns",
      "input": false
    }
  ]
}