{
    "model": "Students",
    "settings": {
      "i18n": {
        "el": {
          "Add/Register students to course class section": "Προσθήκη/εγγραφή φοιτητών σε τμήμα τάξης",
          "Select the course class section that the students will be registered to": "Επιλέξτε το τμήμα τάξης στο οποίο θα εγγραφούν οι φοιτητές"
        }
      }
    },
    "components": [
      {
        "type": "fieldset",
        "key": "fieldSet",
        "input": false,
        "components": [
          {
            "columns": [
              {
                "components": [
                  {
                    "label": "Add/Register students to course class section",
                    "labelPosition": "top",
                    "widget": "choicesjs",
                    "dataSrc": "url",
                    "customConditional": "show = !!(data.courseClass);",
                    "data": {
                      "url": "/CourseClassSections?$select=id, name, section&$filter=courseClass eq '{{data.courseClass}}'",
                      "headers": []
                    },
                    "validate": {
                      "required": true
                    },
                    "valueProperty": "section",
                    "lazyLoad": false,
                    "dataType": "string",
                    "template": "<span class='d-block pr-5 text-truncate'>{{ item.name }}</span>",
                    "selectThreshold": 0.3,
                    "key": "courseClassSection",
                    "type": "select",
                    "selectValues": "value",
                    "input": true,
                    "description": "Select the course class section that the students will be registered to"
                  }
                ],
                "width": 8
              }
            ],
            "customClass": "text-dark",
            "hideLabel": true,
            "type": "columns",
            "input": false
          }
        ]
      }
    ]
}
  