{
	"model": "Instructors",
  "settings": {
    "i18n": {
      "el": {
        "Set the name of the instructor": "Ορίστε το όνομα του διδάσκοντα",
        "Set the family name of the instructor": "Ορίστε το επώνυμο του διδάσκοντα",
        "Set the middle name of the instructor": "Ορίστε το μεσαίο όνομα του διδάσκοντα",
        "Set the title (salutation) of the instructor.": "Ορίστε τον τίτλο του διδάσκοντα.",
        "This should have a valid email format eg. user@example.com": "Πρέπει να έχει μια έγκυρη μορφή ηλεκτρονικού ταχυδρομείου π.χ. user@example.com",
        "Select the department the instructor belongs to. This defaults to your current department.": "Επιλέξτε το τμήμα στο οποίο ανήκει ο διδάσκοντας. Έχει οριστεί ως προεπιλογή το τρέχον σας τμημα.",
        "Set the registration number of the instructor. It should contain up to 20 characters": "Ορίστε τον αριθμό μητρώου του διδάσκοντα. Πρέπει να περιέχει έως 20 χαρακτήρες",
        "Input the home phone number of the instructor. The number must contain the country code.": "Πληκτρολογείστε το σταθερό τηλέφωνο του διδάσκοντα. Πρέπει να περιέχει τον κωδικό της χώρας.",
        "Input the work phone number of the instructor. The number must contain the country code.": "Πληκτρολογείστε το τηλέφωνο εργασίας του διδάσκοντα. Πρέπει να περιέχει τον κωδικό της χώρας.",
		"SSN": "ΑΜΚΑ",
		"The text": "Το κείμενο",
		"Alternate Email": "Εναλλακτικό email",
		"Identity Country": "Χώρα Έκδοσης Ταυτότητας",
		"Additional notes about the instructor (up to 255 characters).": "Επιπρόσθετες σημειώσεις για τον διδάσκοντα (μέχρι 255 χαρακτήρες)."
      }
    }
  },
	"components": [
		{
			"type": "fieldset",
			"legend": "User Information",
			"components": [
				{
					"columns": [
						{
							"components": [
								{
									"label": "Given Name",
									"labelPosition": "top",
									"widget": {
										"type": "input"
									},
									"validate": {
										"required": true
									},
									"key": "givenName",
									"type": "textfield",
									"input": true,
                  "description": "Set the name of the instructor"
                }
							],
							"width": 4
						},
						{
							"components": [
								{
									"label": "Family Name",
									"labelPosition": "top",
									"widget": {
										"type": "input"
									},
									"validate": {
										"required": true
									},
									"key": "familyName",
									"type": "textfield",
									"input": true,
                  "description": "Set the family name of the instructor"
                }
							],
							"width": 4
						},
						{
							"components": [
								{
									"label": "Middle Name",
									"labelPosition": "top",
									"widget": {
										"type": "input"
									},
									"validate": {
										"required": false
									},
									"key": "middleName",
									"type": "textfield",
									"input": true,
                  "description": "Set the middle name of the instructor"
                }
							],
							"width": 4
						}
					],
					"customClass": "text-dark",
					"hideLabel": true,
					"type": "columns",
					"input": false
				},
				{
					"columns": [
						{
							"components": [
								{
									"label": "Title",
									"labelPosition": "top",
									"widget": {
										"type": "input"
									},
									"validate": {
										"required": false
									},
									"key": "title",
									"type": "textfield",
									"input": true,
									"description": "Edit the title (salutation) of the instructor."
								}
							],
							"width": 4
						},
						{
							"components": [
								{
									"label": "Email",
									"labelPosition": "top",
									"widget": {
										"type": "input"
									},
									"validate": {
										"required": true
									},
									"key": "email",
									"type": "email",
									"input": true,
									"description": "This should have a valid email format eg. user@example.com"
								}
							],
							"width": 4
						},
						{
							"components": [
								{
									"label": "Alternate Email",
									"labelPosition": "top",
									"widget": {
										"type": "input"
									},
									"key": "person.alternateEmail",
									"type": "email",
									"input": true,
									"description": "This should have a valid email format eg. user@example.com"
								}
							],
							"width": 4
						}
					],
					"customClass": "text-dark",
					"hideLabel": true,
					"type": "columns",
					"input": false
				},
				{
					"columns": [
						{
							"components": [
								{
									"label": "Birth Date",
									"labelPosition": "top",
									"spellcheck": true,
									"enableTime": false,
									"customOptions": {
										"dateFormat": "yyyy-MM-dd",
										"allowInput": true
									},
									"widget": {
										"type": "calendar"
									},
									"key": "person.birthDate",
									"type": "datetime",
									"format": "dd/MM/yyyy",
									"input": true,
									"defaultValue": null
								}
							],
							"width": 4
						},
						{
							"components": [
								{
									"label": "Gender",
									"labelPosition": "top",
									"placeholder": "Choose Gender",
									"widget": "choicesjs",
									"searchEnabled": false,
									"template": "<span class='d-block pr-5 text-truncate'>{{ item.name }}</span>",
									"type": "select",
									"input": true,
									"dataSrc": "url",
									"data": {
										"url": "Genders/?$select=id,name,alternateName",
										"headers": []
									},
									"key": "gender",
									"dataType": "object",
									"idPath": "id",
									"lazyLoad": false,
									"defaultValue": {
										"id": 1,
										"name": "Άρρεν",
										"alternateName": "male"
									},
									"selectValues": "value",
									"validate": {
										"required": true
									}
								}
							],
							"width": 4
						},
						{
							"components": [
								{
									"label": "SSN",
									"labelPosition": "top",
									"key": "person.SSN",
									"widget": {
										"type": "input"
									},
									"type": "textfield",
									"input": true,
									"validate": {
										"required": false
									}
								}
							],
							"width": 4
						}
					],
					"customClass": "text-dark",
					"hideLabel": true,
					"type": "columns",
					"input": false
				},
				{
					"columns": [
						{
							"components": [
								{
									"label": "Identity Card",
									"labelPosition": "top",
									"key": "person.identityCard",
									"widget": {
										"type": "input"
									},
									"type": "textfield",
									"input": true,
									"validate": {
										"required": false
									}
								}
							],
							"width": 4
						},
						{
							"components": [
								{
									"type": "select",
									"label": "Identity Type",
									"key": "person.identityType",
									"input": true,
									"dataSrc": "url",
									"data": {
										"url": "IdentityTypes",
										"headers": []
									},
									"template": "{{ item.name }}",
									"valueProperty": "identifier",
									"selectValues": "value",
									"validate": {
										"required": false
									},
									"searchEnabled": false,
									"lazyLoad": false
								}
							],
							"width": 4
						},
						{
							"components": [
								{
									"label": "Identity Date",
									"labelPosition": "top",
									"spellcheck": true,
									"enableTime": false,
									"customOptions": {
										"dateFormat": "yyyy-MM-dd",
										"allowInput": true
									},
									"widget": {
										"type": "calendar"
									},
									"key": "person.identityDate",
									"type": "datetime",
									"format": "dd/MM/yyyy",
									"input": true,
									"defaultValue": null
								}
							],
							"width": 4
						}
					],
					"customClass": "text-dark",
					"hideLabel": true,
					"type": "columns",
					"input": false
				},
				{
					"columns": [
						{
							"components": [
								{
									"label": "Identity Authority",
									"labelPosition": "top",
									"key": "person.identityAuthority",
									"widget": {
										"type": "input"
									},
									"type": "textfield",
									"input": true,
									"validate": {
										"required": false
									}
								}
							],
							"width": 4
						},
						{
							"components": [
								{
									"type": "select",
									"label": "Identity Country",
									"key": "person.identityCountry",
									"input": true,
									"dataSrc": "url",
									"data": {
										"url": "Countries?$top={{limit}}&$skip={{skip}}&$select=id,name&$filter=indexof(name, '{{encodeURIComponent(search||'')}}') ge 0&$orderby=name",
										"headers": []
									},
									"template": "{{ item.name }}",
									"selectValues": "value",
									"validate": {
										"required": false
									},
									"limit": 15,
									"dataType": "object",
									"idPath": "id",
									"searchField": "search",
									"searchFields": [
										"value.id",
										"value.name"
									],
									"searchThreshold": "0.3",
									"lazyLoad": true,
									"searchEnabled": true
								}
							],
							"width": 4
						},
						{
							"components": [
								{
									"label": "Vat Number",
									"labelPosition": "top",
									"key": "person.vatNumber",
									"widget": {
										"type": "input"
									},
									"type": "textfield",
									"input": true,
									"validate": {
										"required": false
									}
								}
							],
							"width": 4
						}
					],
					"customClass": "text-dark",
					"hideLabel": true,
					"type": "columns",
					"input": false
				},
				{
					"columns": [
						{
							"components": [
								{
									"label": "Vat Office",
									"labelPosition": "top",
									"key": "person.vatOffice",
									"widget": {
										"type": "input"
									},
									"type": "textfield",
									"input": true,
									"validate": {
										"required": false
									}
								}
							],
							"width": 4
						}
					],
					"customClass": "text-dark",
					"hideLabel": true,
					"type": "columns",
					"input": false
				}
			]
		},
		{
			"legend": "Rating Information",
			"type": "fieldset",
			"components": [
				{
					"columns": [
						{
							"components": [
								{
									"label": "Status",
									"labelPosition": "top",
									"placeholder": "Choose Status",
									"widget": "choicesjs",
									"searchEnabled": false,
									"template": "<span class='d-block pr-5 text-truncate'>{{ item.name }}</span>",
									"type": "select",
									"input": true,
									"dataSrc": "url",
									"data": {
										"url": "InstructorStatuses/?$select=id,name,alternateName",
										"headers": []
									},
									"key": "status",
									"dataType": "object",
									"idPath": "id",
									"lazyLoad": false,
									"defaultValue": {
										"id": 1,
										"name": "Ενεργός",
										"alternateName": "active"
									},
									"selectValues": "value",
									"validate": {
										"required": true
									}
								}
							],
							"width": 3
						},
						{
							"components": [
								{
                  "label": "Department",
                  "labelPosition": "top",
                  "widget": "choicesjs",
                  "key": "department",
                  "dataSrc": "url",
                  "data": {
                      "url": "LocalDepartments/?$select=id,name&$top=-1&$orderby=name",
                      "headers": []
                  },
                  "template": "<span class='d-block pr-5 text-truncate'>{{ item.name }}</span>",
                  "selectValues": "value",
                  "type": "select",
                  "input": true,
                  "disabled": false,
                  "lazyLoad": false,
                  "searchEnabled": true,
                  "searchFields":[ "value.id", "value.name" ],
                  "validate": {
                    "required": true
                  },
                  "description": "Select the department the instructor belongs to. This defaults to your current department."

                }
							],
							"width": 6
						},
						{
							"components": [
								{
									"label": "Expertise",
									"labelPosition": "top",
									"widget": {
										"type": "input"
									},
									"validate": {
										"required": false
									},
									"key": "expertise",
									"type": "textfield",
									"input": true
								}
							],
							"width": 3
						}
					],
					"customClass": "text-dark",
					"hideLabel": true,
					"type": "columns",
					"input": false
				},
				{
					"columns": [
						{
							"components": [
								{
									"label": "Registration Number",
									"labelPosition": "top",
									"widget": {
										"type": "input"
									},
									"validate": {
										"required": false,
										"integer": true
									},
									"key": "personCode",
									"type": "textfield",
									"input": true,
                  "description": "Set the registration number of the instructor. It should contain up to 20 characters"
                }
							],
							"width": 3
						},
						{
							"components": [
								{
									"label": "Specialty",
									"labelPosition": "top",
									"widget": {
										"type": "input"
									},
									"validate": {
										"required": false
									},
									"key": "specialty",
									"type": "textfield",
									"input": true
								}
							],
							"width": 3
						},
						{
							"components": [
								{
									"label": "Category",
									"labelPosition": "top",
									"data":{
										"values": [
											{
												"label": "Create new category",
												"value": 1
											},
											{
												"label": "Choose category from list",
												"value": 2
											}
										]
									},
									"widget": "choicesjs",
									"validate": {
										"required": false
									},
									"key": "categoryOption",
									"searchEnabled": false,
									"type": "select",
									"input": true
								}
							],
							"width": 3
						},
						{
							"components": [
								{
									"label": "Create new category",
									"labelPosition": "top",
									"widget": "choicesjs",
									"validate": {
										"required": false
									},
									"key": "category",
									"type": "textfield",
									"input": true,
									"conditional": {
										"json": {
											"===": [
											{
												"var": "data.categoryOption"
											},
												1
											]
										}
										}
								},
								{
									"label": "Choose category from list",
									"labelPosition": "top",
									"dataSrc": "url",
									"data": {
											"url": "Instructors?$select=category&$groupby=category",
											"headers": []
									},
									"template": "<span class='d-block pr-5 text-truncate'>{{ item.category }}</span>",
									"selectValues": "value",
									"valueProperty": "category",
									"widget": "choicesjs",
									"validate": {
										"required": false
									},
									"lazyLoad": false,
									"key": "category",
									"type": "select",
									"input": true,
									"searchFields":[ "value.category" ],
									"conditional": {
										"json": {
											"===": [
											{
												"var": "data.categoryOption"
											},
												2
											]
										}
									}
								}
							],
						"width": 3
						}
					],
					"customClass": "text-dark",
					"hideLabel": true,
					"type": "columns",
					"input": false
				}
			]
		},
		{
			"type": "fieldset",
			"legend": "Contact Details",
			"components": [
				{
					"columns": [
						{
							"components": [
								{
									"label": "Home Address",
									"labelPosition": "top",
									"widget": {
										"type": "input"
									},
									"validate": {
										"required": false
									},
									"key": "homeAddress",
									"type": "textarea",
									"rows": 2,
									"input": true
								}
							],
							"width": 5
						},
						{
							"components": [
								{
									"label": "Postal Code",
									"labelPosition": "top",
									"inputMask": "99999",
									"widget": {
										"type": "input"
									},
									"validate": {
										"required": false
									},
									"key": "homePostalCode",
									"type": "phoneNumber",
									"input": true
								}
							],
							"width": 1
						},
						{
							"components": [
								{
									"label": "City",
									"labelPosition": "top",
									"widget": {
										"type": "input"
									},
									"validate": {
										"required": false
									},
									"key": "homeCity",
									"type": "textfield",
									"input": true
								}
							],
							"width": 3
						},
						{
							"components": [
								{
									"label": "Country",
									"labelPosition": "top",
									"widget": "choicesjs",
									"validate": {
										"required": false
									},
									"dataSrc": "url",
									"data": {
											"url": "Countries/?$select=id,name&$top=-1",
											"headers": []
									},
									"searchFields": ["id", "name"],
									"template": "<span class='d-block pr-5 text-truncate'>{{ item.name }}</span>",
									"selectValues": "value",
									"valueProperty": "id",
									"lazyLoad": false,
									"key": "country",
									"type": "select",
									"input": true
								}
							],
							"width": 3
						}
					],
					"customClass": "text-dark",
					"hideLabel": true,
					"type": "columns",
					"input": false
				},
				{
					"columns": [
						{
							"components": [
									{
											"label": "Home Phone Number",
											"labelPosition": "top",
											"spellcheck": true,
											"inputMask": "+999999999999",
											"widget": {
													"type": "input"
											},
											"validate": {
													"required": false
											},
											"key": "homePhone",
											"type": "phoneNumber",
											"input": true,
                      "description": "Input the home phone number of the instructor. The number must contain the country code."
                  }
							],
							"width": 3
						}
					],
					"customClass": "text-dark",
					"hideLabel": true,
					"type": "columns",
					"input": false
				},
				{
					"columns": [
						{
							"components": [
								{
									"label": "Work Address",
									"labelPosition": "top",
									"widget": {
										"type": "input"
									},
									"validate": {
										"required": false
									},
									"key": "workAddress",
									"type": "textarea",
									"rows": 2,
									"input": true
								}
							],
							"width": 5
						},
						{
							"components": [
								{
									"label": "Postal Code",
									"labelPosition": "top",
									"inputMask": "99999",
									"widget": {
										"type": "input"
									},
									"validate": {
										"required": false
									},
									"key": "workPostalCode",
									"type": "phoneNumber",
									"input": true
								}
							],
							"width": 1
						},
						{
							"components": [
								{
									"label": "City",
									"labelPosition": "top",
									"widget": {
										"type": "input"
									},
									"validate": {
										"required": false
									},
									"key": "workCity",
									"type": "textfield",
									"input": true
								}
							],
							"width": 3
						},
						{
							"components": [
								{
									"label": "Work Country",
									"labelPosition": "top",
									"widget": "choicesjs",
									"validate": {
										"required": false
									},
									"dataSrc": "url",
									"data": {
											"url": "Countries/?$select=id,name&$top=-1",
											"headers": []
									},
									"searchFields": ["id", "name"],
									"template": "<span class='d-block pr-5 text-truncate'>{{ item.name }}</span>",
									"selectValues": "value",
									"valueProperty": "id",
									"lazyLoad": false,
									"key": "workCountry.id",
									"type": "select",
									"input": true
								}
							],
							"width": 3
						}
					],
					"customClass": "text-dark",
					"hideLabel": true,
					"type": "columns",
					"input": false
				},
				{
					"columns": [
						{
							"components": [
									{
											"label": "Work Phone Number",
											"labelPosition": "top",
											"spellcheck": true,
											"inputMask": "+999999999999",
											"widget": {
													"type": "input"
											},
											"validate": {
													"required": false
											},
											"key": "workPhone",
											"type": "phoneNumber",
											"input": true,
                      "description": "Input the work phone number of the instructor. The number must contain the country code."

                  }
							],
							"width": 3
						}
					],
					"customClass": "text-dark",
					"hideLabel": true,
					"type": "columns",
					"input": false
				},
				{
					"label": "Notes",
					"labelPosition": "top",
					"spellcheck": true,
					"widget": {
						"type": "input"
					},
					"validate": {
						"maxLength": 255
					},
					"errorLabel": "The text",
					"key": "person.notes",
					"type": "textarea",
					"wysiwyg": false,
					"rows": 5,
					"input": true,
					"description": "Additional notes about the instructor (up to 255 characters)."
				}
			]
		},
		{
			"type": "button",
      "theme": "btn btn-indigo",
			"label": "Submit",
			"key": "submit",
			"disableOnInvalid": true,
			"input": true
		}
	]
}
