{
  "title": "courseClasses",
  "model": "courseClasses",
  "searchExpression":"indexof(period/name, '${text}') ge 0 or indexof(year/alternateName, '${text}') ge 0 or indexof(course/name, '${text}') ge 0 or indexof(course/displayCode, '${text}') ge 0",
  "columns": [
    {
      "name":"course/displayCode",
      "property":"displayCode",
      "title":"Classes.DisplayCode",
      "hidden": true
    },
    {
      "name": "course/name",
      "property": "title",
      "title": "Classes.ClassTitle"
    },
    {
      "name": "year/alternateName",
      "property": "year",
      "title": "Classes.Year"
    },
    {
      "name": "period/name",
      "property": "period",
      "title": "Classes.Period"
    },
    {
      "name": "numberOfStudents",
      "className": "text-center",
      "property": "numberOfStudents",
      "title": "Classes.NumberOfStudents"
    },
    {
      "name": "maxNumberOfStudents",
      "className": "text-center",
      "property": "maxNumberOfStudents",
      "title": "Classes.MaxNumberOfStudents"
    },
    {
      "name": "weekHours",
      "property": "weekHours",
      "className": "text-center",
      "title": "Classes.WeekHours"
    },
    {
      "name": "totalHours",
      "property": "totalHours",
      "className": "text-center",
      "title": "Classes.TotalHours"
    },
    {
      "name": "id",
      "property": "id",
      "formatter": "ButtonFormatter",
      "formatString": "#/classes/${id}/dashboard/overview",
      "className": "text-center",
      "formatOptions": {
        "buttonContent": "<i class=\"far fa-eye text-indigo\"></i>",
        "buttonClass": "btn btn-default",
        "commands": ["/classes", "${id}", "dashboard", "overview"]
      }
    }
  ],
  "criteria": [
    {
      "name": "classTitle",
      "filter": "(indexof(title, '${value}') ge 0)",
      "type": "text"
    },
    {
      "name": "displayCode",
      "filter": "(course/displayCode eq '${value}')",
      "type": "text"
    }
    ,
    {
      "name": "numberOfStudents",
      "filter": "(numberOfStudents eq '${value}')",
      "type": "text"
    },
    {
      "name": "academicYear",
      "filter": "(year/id eq '${value}')",
      "type": "text"
    },
    {
      "name": "academicPeriod",
      "filter": "(period/alternateName eq '${value}')",
      "type": "text"
    },
    {
      "name": "courseID",
      "filter": "(course eq '${value}')",
      "type": "text"
    }
  ]
}
