{
  "title": "Exam Instructors",
  "model": "Instructors",
  "columns": [
    {
      "name":"instructor/familyName",
      "property": "familyName",
      "title":"Instructors.FullName",
      "formatter": "TemplateFormatter",
      "formatString": "${familyName} ${givenName}"
    },
    {
      "name":"instructor/givenName",
      "property": "givenName",
      "title":"Instructors.GivenName",
      "hidden": true
    },
    {
      "name":"instructor/department/name",
      "property": "departmentName",
      "title":"Instructors.Department"
    },
    {
      "name":"instructor/category",
      "property": "category",
      "title":"Instructors.Category"
    },
    {
      "name":"instructor/email",
      "property": "email",
      "title":"Instructors.Email"
    },
    {
      "name":"instructor/workPhone",
      "property": "workPhone",
      "title":"Instructors.WorkPhone"
    },
    {
      "name":"instructor/id",
      "property": "id",
      "formatter": "ButtonFormatter",
      "formatString": "#/instructors/${id}/dashboard/overview",
      "formatOptions": {
        "buttonContent": "<i class=\"far fa-eye text-indigo\"></i>",
        "buttonClass": "btn btn-default"
      }
    }
  ]
}
