{
  "model": "StudentCourseClasses",
  "title": "class students",
  "searchExpression": "indexof(student/studentIdentifier, '${text}') ge 0 or indexof(student/person/familyName, '${text}') ge 0 or indexof(student/person/givenName, '${text}') ge 0 or indexof(student/studyProgram/name, '${text}') ge 0 or indexof(student/studentStatus/name, '${text}') ge 0)",
  "selectable": true,
  "multipleSelect": true,
  "columns": [
    {
      "name": "id",
      "property": "id",
      "hidden": "true"
    },
    {
      "name": "courseClass/course/id",
      "property": "courseId",
      "hidden": true
    },
    {
      "name": "student/studentIdentifier",
      "property": "studentIdentifier",
      "title": "Students.studentIdentifier"
    },
    {
      "name": "student/person/givenName",
      "property": "givenName",
      "hidden": true,
      "title": "Students.GivenName"
    },
    {
      "name": "student/person/familyName",
      "property": "familyName",
      "title": "Students.fullName",
      "formatter": "TemplateFormatter",
      "formatString": "${familyName} ${givenName}"
    },
    {
      "name": "student/studentStatus/alternateName",
      "property": "studentStatus",
      "title": "Students.Status",
      "formatter": "TranslationFormatter",
      "formatString": "StudentStatuses.${value}"
    },
    {
      "name": "student/inscriptionYear/name",
      "property": "inscriptionYear",
      "title": "Students.inscriptionYear"
    },
    {
      "name": "student/inscriptionPeriod/alternateName",
      "property": "inscriptionPeriod",
      "title": "Students.inscriptionPeriod",
      "formatter": "TranslationFormatter",
      "formatString": "Periods.${value}"
    },
    {
      "name": "student/studyProgram/abbreviation",
      "property": "studyProgram",
      "title": "Students.studyProgram"
    },
    {
      "name": "registration/semester",
      "property": "registrationSemester",
      "title": "Students.semester"
    },
    {
      "name": "sectionName",
      "property": "sectionName",
      "title": "Classes.ClassSection"
    },
    {
      "name": "student/department/id",
      "property": "studentDepartment",
      "title": "Students.Department",
      "hidden": true
    },
    {
      "name": "courseClass/course/department",
      "property": "courseDepartment",
      "title": "Courses.Department",
      "hidden": true
    },
    {
      "name": "student/department/abbreviation",
      "property": "studentDepartmentAbbreviation",
      "title": "Students.Department"
    },
    {
      "name": "isPassed",
      "property": "isPassed",
      "hidden": true
    },
    {
      "name": "status/name",
      "property": "status",
      "title": "Classes.StudentClassStatus"
    },
    {
      "name": "formattedGrade",
      "property": "formattedGrade",
      "title": "Exams.Grade",
      "formatter": "NgClassFormatter",
      "formatOptions": {
        "ngClass": {
          "text-success": "${isPassed}===1  && ${formattedGrade != null}",
          "text-danger": "${isPassed}===0 && ${formattedGrade != null}"
        }
      }
    },
    {
      "name": "student/id",
      "property": "studentId",
      "formatters": [
        {
          "formatter": "ButtonFormatter",
          "formatOptions": {
            "buttonContent": "<i class=\"far fa-eye text-indigo\"></i>",
            "buttonClass": "btn btn-default"
          },
          "formatString": "#/students/${studentId}/dashboard/overview"
        },
        {
          "formatter": "NgClassFormatter",
          "formatOptions": {
            "ngClass": {
              "text-center": "${studentDepartment === courseDepartment}",
              "d-none": "${studentDepartment !== courseDepartment}"
            }
          }
        }
      ]
    },
    {
      "name": "section",
      "property": "section",
      "hidden": true
    }
  ],
  "criteria": [
    {
      "name": "studyProgram",
      "filter": "(indexof(student/studyProgram/abbreviation, '${value}') ge 0 )",
      "type": "text"
    },
    {
    "name": "studentName",
      "filter": "(indexof(student/person/familyName, '${value}') ge 0 or indexof(student/studentIdentifier, '${value}') ge 0)",
      "type": "text"
    },
    {
      "name": "studentStatus",
      "filter": "(student/studentStatus/alternateName eq '${value}')",
      "type": "text"
    },
    {
      "name": "inscriptionYear",
      "filter": "(student/inscriptionYear/id eq '${value}')",
      "type": "text"
    },
    {
      "name": "inscriptionPeriod",
      "filter": "(student/inscriptionPeriod/alternateName eq '${value}')",
      "type": "text"
    },
    {
      "name": "semester",
      "filter": "(registration/semester eq '${value}')",
      "type": "text"
    },
    {
      "name": "courseClassID",
      "filter": "(courseClass eq '${value}')",
      "type": "text"
    }
  ,
    {
      "name": "section",
      "filter": "(section eq '${value}')",
      "type": "text"
    },
    {
      "name": "studentDepartment",
      "filter": "(student/department/id eq '${value}')",
      "type": "text"
    },
    {
      "name": "status",
      "filter": "(status/id eq '${value}')",
      "type": "text"
    }
  ]
}
