{
  "model": "ProgramGroups",
  "title": "Study Program Group",
  "settings": {
    "i18n": {
      "el": {
        "Course": "Μάθημα",
        "Type": "Τύπος",
        "Set course type according to rules and requirements of this study program.": "Ορίστε τον τύπο του μαθήματος σύμφωνα με τους κανόνες και τις προϋποθέσεις του προγράμματος σπουδών.",
        "Set course units. Course units will be used while validating degree requirements.": "Ορίστε τις διδακτικές μονάδες. Οι διδακτικές μονάδες ενός μαθήματος θα χρησιμοποιηθούν κατά τον έλεγχο προϋποθέσεων λήψης πτυχίου.",
        "Set ECTS units. Course ECTS will be used while validating degree requirements.": "Ορίστε τις μονάδες ECTS. Οι μονάδες ECTS ενός μαθήματος θα χρησιμοποιηθούν κατά τον έλεγχο προϋποθέσεων λήψης πτυχίου.",
        "Set course semester according to rules and requirements of this study program.": "Ορίστε το εξάμηνό του μαθήματος σύμφωνα με τους κανόνες και τις προϋποθέσεις του προγράμματος σπουδών.",
        "Set course coefficient. This attribute is going to used while calculating degree grade.": "Ορίστε τον συντελεστή του μαθήματος. Το στοιχείο αυτό θα χρησιμοποιηθεί κατά τον υπολογισμό του βαθμού πτυχίου."
      }
    }
  },
  "components": [{
    "label": "Tabs",
    "type": "tabs",
    "key": "tabs1",
    "path": "tabs1",
    "input": false,

    "components": [{
      "legend": "General Information",
      "key": "fieldSet",
      "type": "fieldset",
      "input": false,
      "label": "General Information",
      "components": [
        {
          "columns": [
            {
              "components": [
                {
                  "label": "Name",
                  "labelPosition": "top",
                  "widget": {
                    "type": "input"
                  },
                  "validate": {
                    "required": true,
                    "maxLength": 150
                  },
                  "key": "name",
                  "type": "textfield",
                  "input": true
                }
              ],
              "width": 12,
              "offset": 0,
              "push": 0,
              "pull": 0
            }
          ],
          "customClass": "text-dark",
          "hideLabel": true,
          "type": "columns",
          "input": false
        },
        {
          "columns": [
            {
              "components": [
                {
                  "label": "DisplayCode",
                  "labelPosition": "top",
                  "widget": {
                    "type": "input"
                  },
                  "validate": {
                    "required": true,
                    "maxLength": 20
                  },
                  "key": "displayCode",
                  "type": "textfield",
                  "input": true
                }
              ],
              "width": 6
            },
            {
              "components": [
                {
                  "label": "Description",
                  "labelPosition": "top",
                  "widget": {
                    "type": "input"
                  },
                  "validate": {
                    "required": false,
                    "maxLength": 150
                  },
                  "key": "description",
                  "type": "textfield",
                  "input": true
                }
              ],
              "width": 6,
              "offset": 0,
              "push": 0,
              "pull": 0
            },
            {
              "components": [
                {
                  "label": "Active study program group",
                  "labelPosition": "top",
                  "searchEnabled": false,
                  "data": {
                    "values": [
                      {
                        "label": "No",
                        "value": "0"
                      },
                      {
                        "label": "Yes",
                        "value": "1"
                      }
                    ]
                  },
                  "key": "isActive",
                  "dataType": "string",
                  "type": "select",
                  "input": true,
                  "validate": {
                    "required": true
                  }
                }
              ],
              "width": 4
            },
            {
              "components": [
                {
                  "label": "Min Groups",
                  "labelPosition": "top",
                  "widget": {
                    "type": "input"
                  },
                  "validate": {
                    "required": true,
                    "integer": true,
                    "min": 1,
                    "max": 12
                  },
                  "key": "minCourses",
                  "type": "number",
                  "input": true,
                  "protected": true,
                  "customConditional": "show = data.groupType && data.groupType == 1"
                }
              ],
              "width": 4
            },
            {
              "components": [
                {
                  "label": "Max Groups",
                  "labelPosition": "top",
                  "widget": {
                    "type": "input"
                  },
                  "validate": {
                    "required": true,
                    "integer": true,
                    "min": 1,
                    "max": 12
                  },
                  "key": "maxCourses",
                  "type": "number",
                  "input": true,
                  "protected": true,
                  "customConditional": "show = data.groupType && data.groupType == 1"
                }
              ],
              "width": 4
            },
            {
              "components": [
                {
                  "label": "Min Courses",
                  "labelPosition": "top",
                  "widget": {
                    "type": "input"
                  },
                  "validate": {
                    "required": true,
                    "integer": true,
                    "min": 1,
                    "max": 12
                  },
                  "key": "minCourses",
                  "type": "number",
                  "input": true,
                  "protected": true,
                  "customConditional": "show = data.groupType && data.groupType == 2"
                }
              ],
              "width": 4
            },
            {
              "components": [
                {
                  "label": "Max Courses",
                  "labelPosition": "top",
                  "widget": {
                    "type": "input"
                  },
                  "validate": {
                    "required": true,
                    "integer": true,
                    "min": 1,
                    "max": 12
                  },
                  "key": "maxCourses",
                  "type": "number",
                  "input": true,
                  "protected": true,
                  "customConditional": "show = data.groupType && data.groupType == 2"
                }
              ],
              "width": 4
            },
            {
              "components": [
                {
                  "widget": "choicesjs",
                  "label": "Available in Exams",
                  "tableView": true,
                  "multiple": true,
                  "dataSrc": "url",
                  "data": {
                    "url": "Semesters/All?$orderby=id",
                    "headers": []
                  },
                  "selectValues": "value",
                  "template": "<span class='text-truncate'>{{ item.name }}</span>",
                  "key": "availableInExamsExpanded",
                  "type": "select",
                  "input": true,
                  "lazyLoad": false
                }
              ],
              "width": 6,
              "offset": 0,
              "push": 0,
              "pull": 0,
              "size": "md"
            },
            {
              "components": [
                {
                  "optionsLabelPosition": "right",
                  "inline": true,
                  "tableView": false,
                  "label": "Is Calculated",
                  "defaultValue": 0,
                  "values": [
                    {
                      "label": "Yes",
                      "value": 1
                    },
                    {
                      "label": "No",
                      "value": 0
                    }
                  ],
                  "key": "isCalculated",
                  "type": "radio",
                  "input": true,
                  "customConditional": "show = data.groupType && data.groupType == 2"
                },
                {
                  "label": "Grade Scale",
                  "labelPosition": "top",
                  "widget": "choicesjs",
                  "searchEnabled": true,
                  "dataSrc": "url",
                  "data": {
                    "values": [],
                    "url": "/GradeScales?$top=-1&$skip=0&$select=id,name"
                  },
                  "validate": {
                    "required": true
                  },
                  "selectThreshold": 0.3,
                  "lazyLoad": false,
                  "template": "{{ item.name }}",
                  "selectValues": "value",
                  "key": "gradeScale",
                  "dataType": "object",
                  "idPath": "id",
                  "clearOnHide": true,
                  "type": "select",
                  "input": true,
                  "customConditional": "show = data.isCalculated == 1"
                },
                {
                  "clearOnHide": true,
                  "label": "Units",
                  "mask": false,
                  "spellcheck": true,
                  "tableView": false,
                  "delimiter": false,
                  "requireDecimal": false,
                  "inputFormat": "plain",
                  "validate": {
                    "required": true
                  },
                  "key": "units",
                  "type": "number",
                  "input": true,
                  "hideOnChildrenHidden": false,
                  "description": "Set course units. Course units will be used while validating degree requirements.",
                  "customConditional": "show = data.isCalculated == 1"
                },
                {
                  "clearOnHide": true,
                  "label": "ECTS",
                  "labelPosition": "top",
                  "widget": {
                    "type": "input"
                  },
                  "validate": {
                    "required": true,
                    "min": 0
                  },
                  "key": "ects",
                  "type": "number",
                  "input": true,
                  "description": "Set ECTS units. Course ECTS will be used while validating degree requirements.",
                  "customConditional": "show = data.isCalculated == 1"
                },
                {
                  "clearOnHide": true,
                  "label": "Coefficient",
                  "mask": false,
                  "spellcheck": true,
                  "tableView": false,
                  "delimiter": false,
                  "requireDecimal": false,
                  "inputFormat": "plain",
                  "validate": {
                    "required": true,
                    "integer": false
                  },
                  "key": "coefficient",
                  "type": "number",
                  "input": true,
                  "hideOnChildrenHidden": false,
                  "description": "Set course coefficient. This attribute is going to used while calculating degree grade.",
                  "customConditional": "show = data.isCalculated == 1"
                },
                {
                  "clearOnHide": true,
                  "label": "Type",
                  "labelPosition": "top",
                  "widget": "choicesjs",
                  "dataSrc": "url",
                  "data": {
                    "url": "CourseTypes?$orderby=name",
                    "headers": []
                  },
                  "validate": {
                    "required": true
                  },
                  "template": "<span class='col-4 text-truncate'>{{ item.name }}</span>",
                  "selectValues": "value",
                  "key": "courseType",
                  "dataType": "object",
                  "idPath": "id",
                  "searchEnabled": false,
                  "type": "select",
                  "input": true,
                  "lazyLoad": false,
                  "description": "Set course type according to rules and requirements of this study program.",
                  "customConditional": "show = data.isCalculated == 1"
                },
                {
                  "clearOnHide": true,
                  "label": "Semester",
                  "labelPosition": "top",
                  "widget": "choicesjs",
                  "dataSrc": "url",
                  "data": {
                    "url": "Semesters?$orderby=id",
                    "headers": []
                  },
                  "validate": {
                    "required": true
                  },
                  "template": "<span class='col-4 text-truncate'>{{ item.name }}</span>",
                  "selectValues": "value",
                  "key": "semester",
                  "dataType": "object",
                  "idPath": "id",
                  "searchEnabled": false,
                  "type": "select",
                  "input": true,
                  "lazyLoad": false,
                  "customConditional": "show = data.isCalculated == 1"
                }

              ],
              "width": 12,
              "offset": 0,
              "push": 0,
              "pull": 0,
              "size": "md"
            }
          ],
          "customClass": "text-dark",
          "hideLabel": true,
          "type": "columns",
          "input": false
        }
      ]
    }
    ]
  },
    {
      "type": "button",
      "label": "Submit",
      "key": "submit",
      "disableOnInvalid": true,
      "input": true
    }
  ]
}
