{
  "model": "StudentGradeRemarkActions",
  "settings": {
    "i18n": {
      "el": {
        "Remark date": "Ημερομηνία αναβαθμολόγησης",
        "Grade": "Βαθμός",
        "Status": "Κατάσταση",
        "Grade remark request info": "Στοιχεία αίτησης αναβαθμολόγησης",
        "Remark decision": "Αριθμός απόφασης",
        "Comments": "Σχόλια"
      }
    }
  },
  "components": [
    {
      "key": "fieldset",
      "type": "fieldset",
      "input": false,
      "components": [
        {
          "columns": [
            {
              "components": [
                {
                  "label": "Title",
                  "labelPosition": "top",
                  "widget": {
                    "type": "input"
                  },
                  "validate": {
                    "required": false
                  },
                  "key": "description",
                  "type": "textfield",
                  "input": true,
                  "disabled": true
                }
              ],
              "width": 12
            },
            {
              "components": [
                {
                  "label": "Comments",
                  "widget": "choicesjs",
                  "selectThreshold": 0.3,
                  "validate": {
                    "unique": false,
                    "multiple": false
                  },
                  "key": "comments",
                  "type": "textarea",
                  "input": true,
                  "hideOnChildrenHidden": false,
                  "disableLimit": false,
                  "disabled": true
                }
              ],
              "width": 12,
              "offset": 0,
              "push": 0,
              "pull": 0
            }
          ],
          "customClass": "text-dark",
          "type": "columns",
          "input": false
        }
      ]
    }
  ]
}
